Core/Other_Utils/Cache_Subsystem/dumpfiles/LRU_dump.vcd
$date
	Sat Jun 14 22:01:32 2025
$end
$version
	Icarus Verilog
$end
$timescale
	1ps
$end
$scope module LRU_test $end
$var wire 32 ! value_write [31:0] $end
$var wire 4 " tag_write [3:0] $end
$var wire 1 # memwrite $end
$var wire 1 $ cache_miss $end
$var reg 1 % RD_ $end
$var reg 1 & RD_syn $end
$var reg 1 ' WR_ $end
$var reg 1 ( WR_syn $end
$var reg 1 ) clk $end
$var reg 4 * input_tag [3:0] $end
$var reg 4 + input_tag_syn [3:0] $end
$var reg 32 , new_value [31:0] $end
$var reg 32 - new_value_syn [31:0] $end
$var reg 1 . rst $end
$var reg 1 / select $end
$scope module DUT $end
$var wire 1 & RD_ $end
$var wire 1 ( WR_ $end
$var wire 1 ) clk $end
$var wire 4 0 input_tag [3:0] $end
$var wire 1 # memwrite $end
$var wire 32 1 new_value [31:0] $end
$var wire 1 . rst $end
$var wire 1 / select $end
$var wire 4 2 tag_write [3:0] $end
$var wire 4 3 tags0 [3:0] $end
$var wire 4 4 tags1 [3:0] $end
$var wire 4 5 tags2 [3:0] $end
$var wire 4 6 tags3 [3:0] $end
$var wire 32 7 value_write [31:0] $end
$var wire 32 8 values0 [31:0] $end
$var wire 32 9 values1 [31:0] $end
$var wire 32 : values2 [31:0] $end
$var wire 32 ; values3 [31:0] $end
$var wire 4 < write_en [3:0] $end
$var wire 4 = right_shift_en_hit [3:0] $end
$var wire 4 > compare [3:0] $end
$var reg 1 $ cache_miss $end
$var reg 4 ? dirty [3:0] $end
$var reg 32 @ read_buf [31:0] $end
$var reg 4 A valid [3:0] $end
$var integer 32 B i [31:0] $end
$scope begin genblk1[0] $end
$upscope $end
$scope begin genblk1[1] $end
$upscope $end
$scope begin genblk1[2] $end
$upscope $end
$scope begin genblk1[3] $end
$upscope $end
$scope begin genblk2[0] $end
$upscope $end
$scope begin genblk2[1] $end
$upscope $end
$scope begin genblk2[2] $end
$upscope $end
$upscope $end
$scope begin $ivl_for_loop0 $end
$var integer 32 C i [31:0] $end
$upscope $end
$scope begin $ivl_for_loop1 $end
$var integer 32 D i [31:0] $end
$upscope $end
$scope task Read $end
$var reg 4 E input_tag_arg [3:0] $end
$upscope $end
$scope task Write $end
$var reg 4 F input_tag_arg [3:0] $end
$var reg 32 G new_value_arg [31:0] $end
$upscope $end
$upscope $end
$enddefinitions $end
#0
$dumpvars
bx G
bx F
bx E
bx D
bx C
b100 B
b0 A
b0 @
b0 ?
b0 >
b0 =
b0 <
b0 ;
b0 :
b0 9
b0 8
b0 7
b0 6
b0 5
b0 4
b0 3
b0 2
b0 1
b0 0
1/
0.
b0 -
b10010010000101010011010100100100 ,
b0 +
b1 *
0)
1(
1'
1&
1%
1$
0#
b0 "
b0 !
$end
#5000
b100 B
1)
#10000
0)
1.
#15000
b10010010000101010011010100100100 -
b10010010000101010011010100100100 1
b1 +
b1 0
b100 B
1)
#20000
0)
#25000
b100 B
1)
#30000
0)
#35000
b100 B
1)
#40000
0)
#45000
b100 B
1)
#50000
0)
#55000
b100 B
1)
#59000
b1000000100010010101111010000001 G
b101 F
#60000
0)
#61000
b1000000100010010101111010000001 ,
b101 *
0'
#65000
b1111 <
0(
b1000000100010010101111010000001 -
b1000000100010010101111010000001 1
b101 +
b101 0
b100 B
1)
#70000
0)
#71000
b110 C
1'
#75000
b1 =
b0 <
0$
b1 >
b1 ?
b1000000100010010101111010000001 8
b101 3
b1 A
1(
b100 B
1)
#80000
0)
#85000
b100 B
1)
#90000
0)
#95000
b100 B
1)
#100000
0)
#105000
b100 B
1)
#106000
b100100001001101011000001001 G
b110 F
#110000
0)
#111000
b100100001001101011000001001 ,
b110 *
0'
#115000
b1111 <
b0 =
1$
b0 >
0(
b100100001001101011000001001 -
b100100001001101011000001001 1
b110 +
b110 0
b100 B
1)
#120000
0)
#121000
b111 C
1'
#125000
b0 <
b1 =
0$
b1 >
1(
b11 A
b11 ?
b1000000100010010101111010000001 9
b101 4
b100100001001101011000001001 8
b110 3
b100 B
1)
#130000
0)
#135000
b100 B
1)
#140000
0)
#145000
b100 B
1)
#150000
0)
#155000
b100 B
1)
#156000
b110001111100000101011001100011 G
b111 F
#160000
0)
#161000
b110001111100000101011001100011 ,
b111 *
0'
#165000
b1111 <
b0 =
1$
b0 >
0(
b110001111100000101011001100011 -
b110001111100000101011001100011 1
b111 +
b111 0
b100 B
1)
#170000
0)
#171000
b1000 C
1'
#175000
b1 =
b0 <
0$
b1 >
b111 ?
b1000000100010010101111010000001 :
b101 5
b100100001001101011000001001 9
b110 4
b110001111100000101011001100011 8
b111 3
b111 A
1(
b100 B
1)
#180000
0)
#185000
b100 B
1)
#190000
0)
#195000
b100 B
1)
#200000
0)
#205000
b100 B
1)
#206000
b10000110101110010111101100001101 G
b1000 F
#210000
0)
#211000
b10000110101110010111101100001101 ,
b1000 *
0'
#215000
b1111 <
b0 =
1$
b0 >
0(
b10000110101110010111101100001101 -
b10000110101110010111101100001101 1
b1000 +
b1000 0
b100 B
1)
#220000
0)
#221000
b1001 C
1'
#225000
b0 <
b1 =
0$
b1 >
1(
b1111 A
b1111 ?
b1000000100010010101111010000001 ;
b1000000100010010101111010000001 !
b1000000100010010101111010000001 7
b101 6
b101 "
b101 2
b100100001001101011000001001 :
b110 5
b110001111100000101011001100011 9
b111 4
b10000110101110010111101100001101 8
b1000 3
b100 B
1)
#230000
0)
#235000
b100 B
1)
#240000
0)
#245000
b100 B
1)
#250000
0)
#255000
b100 B
1)
#256000
b11000110110111111001100110001101 G
b1001 F
#260000
0)
#261000
b11000110110111111001100110001101 ,
b1001 *
0'
#265000
b1111 <
1#
b0 =
1$
b0 >
0(
b11000110110111111001100110001101 -
b11000110110111111001100110001101 1
b1001 +
b1001 0
b100 B
1)
#270000
0)
#271000
b1010 C
1'
#275000
b1 =
0#
b0 <
0$
b1 >
b100100001001101011000001001 ;
b100100001001101011000001001 !
b100100001001101011000001001 7
b110 6
b110 "
b110 2
b110001111100000101011001100011 :
b111 5
b10000110101110010111101100001101 9
b1000 4
b11000110110111111001100110001101 8
b1001 3
1(
b100 B
1)
#280000
0)
#285000
b100 B
1)
#290000
0)
#295000
b100 B
1)
#300000
0)
#305000
b100 B
1)
#306000
b110010110000101000010001100101 G
b1010 F
#310000
0)
#311000
b110010110000101000010001100101 ,
b1010 *
0'
#315000
b1111 <
1#
b0 =
1$
b0 >
0(
b110010110000101000010001100101 -
b110010110000101000010001100101 1
b1010 +
b1010 0
b100 B
1)
#320000
0)
#321000
b1011 C
1'
#325000
b0 <
b1 =
0#
0$
b1 >
1(
b110001111100000101011001100011 ;
b110001111100000101011001100011 !
b110001111100000101011001100011 7
b111 6
b111 "
b111 2
b10000110101110010111101100001101 :
b1000 5
b11000110110111111001100110001101 9
b1001 4
b110010110000101000010001100101 8
b1010 3
b100 B
1)
#330000
0)
#335000
b100 B
1)
#340000
0)
#345000
b100 B
1)
#350000
0)
#355000
b100 B
1)
#356000
b1001001101110101001000010010 G
b1011 F
#360000
0)
#361000
b1001001101110101001000010010 ,
b1011 *
0'
#365000
b1111 <
1#
b0 =
1$
b0 >
0(
b1001001101110101001000010010 -
b1001001101110101001000010010 1
b1011 +
b1011 0
b100 B
1)
#370000
0)
#371000
b1001 D
b1100 C
1'
#375000
b1 =
0#
b0 <
0$
b1 >
b10000110101110010111101100001101 ;
b10000110101110010111101100001101 !
b10000110101110010111101100001101 7
b1000 6
b1000 "
b1000 2
b11000110110111111001100110001101 :
b1001 5
b110010110000101000010001100101 9
b1010 4
b1001001101110101001000010010 8
b1011 3
1(
b100 B
1)
#380000
0)
#385000
b100 B
1)
#390000
0)
#395000
b100 B
1)
#400000
0)
#405000
b100 B
1)
#406000
b1001 E
#410000
0)
#411000
b1001 *
0%
#415000
b111 <
b111 =
b100 >
0&
b1001 +
b1001 0
b100 B
1)
#420000
0)
#421000
b1010 D
1%
#425000
b0 <
b1 =
b1 >
1&
b110010110000101000010001100101 :
b1010 5
b1001001101110101001000010010 9
b1011 4
b11000110110111111001100110001101 8
b1001 3
b11000110110111111001100110001101 @
b100 B
1)
#430000
0)
#435000
b100 B
1)
#440000
0)
#445000
b100 B
1)
#450000
0)
#455000
b100 B
1)
#456000
b1010 E
#460000
0)
#461000
b1010 *
0%
#465000
b111 <
b111 =
b100 >
0&
b1010 +
b1010 0
b100 B
1)
#470000
0)
#471000
b1011 D
1%
#475000
b0 <
b1 =
b1 >
b110010110000101000010001100101 @
b1001001101110101001000010010 :
b1011 5
b11000110110111111001100110001101 9
b1001 4
b110010110000101000010001100101 8
b1010 3
1&
b100 B
1)
#480000
0)
#485000
b100 B
1)
#490000
0)
#495000
b100 B
1)
#500000
0)
#505000
b100 B
1)
#506000
b1011 E
#510000
0)
#511000
b1011 *
0%
#515000
b111 <
b111 =
b100 >
0&
b1011 +
b1011 0
b100 B
1)
#520000
0)
#521000
b1100 D
1%
#525000
b0 <
b1 =
b1 >
1&
b11000110110111111001100110001101 :
b1001 5
b110010110000101000010001100101 9
b1010 4
b1001001101110101001000010010 8
b1011 3
b1001001101110101001000010010 @
b100 B
1)
#530000
0)
#535000
b100 B
1)
#540000
0)
#545000
b100 B
1)
#550000
0)
#555000
b100 B
1)
#556000
b1100 E
#560000
0)
#561000
b1100 *
0%
#565000
b0 =
1$
b0 >
0&
b1100 +
b1100 0
b100 B
1)
#570000
0)
#571000
b1101 D
1%
#575000
1&
b100 B
1)
#580000
0)
#585000
b100 B
1)
#590000
0)
#595000
b100 B
1)
#600000
0)
#605000
b100 B
1)
#606000
b1101 E
#610000
0)
#611000
b1101 *
0%
#615000
0&
b1101 +
b1101 0
b100 B
1)
#620000
0)
#621000
b1110 D
1%
#625000
1&
b100 B
1)
#630000
0)
#635000
b100 B
1)
